﻿<?xml version="1.0" encoding="utf-8"?>
<report>
	<activity
		result="Failed"
		duration="14.55s"
		durationms="14548"
		type="root"
		rid="cd9598e53f3a806"
		totalerrorcount="1"
		totalwarningcount="0"
		totalsuccesscount="0"
		totalfailedcount="1"
		totalblockedcount="0"
		user="CTELaptop1064"
		host="CTELAPTOP-1064"
		rxversion="6.0.2.0"
		osversion="Windows 8.1 64bit"
		runtimeversion="4.0.30319.42000"
		procarch="32bit"
		language="en-US"
		screenresolution="1920x1080"
		timestamp="9/27/2016 9:47:35 AM"
		timestampiso="2016-09-27T13:47:35"
		timeoutfactor="1">
		<detail>
			Ranorex Testscript
		</detail>
		<activity
			result="Failed"
			duration="14.22s"
			durationms="14220"
			type="test suite"
			rid="2a598c974e933b80"
			totalerrorcount="1"
			totalwarningcount="0"
			totalsuccesscount="0"
			totalfailedcount="1"
			totalblockedcount="0"
			testsuitename="BackBaseMobile"
			runconfigname="TestRun"
			runlabel=""
			maxchildren="1">
			<params/>
			<detail>
			</detail>
			<activity
				result="Failed"
				duration="14.21s"
				durationms="14205"
				type="test case"
				rid="4cdc4dad2008b98"
				totalerrorcount="1"
				totalwarningcount="0"
				totalsuccesscount="0"
				totalfailedcount="1"
				totalblockedcount="0"
				testcasename="TestCase"
				testcaseid="31ab1c4b-0888-442e-8967-ca0f247bd1f6"
				datasource="NewConnector"
				iterationcount="1"
				maxchildren="0">
				<params/>
				<detail>
				</detail>
				<activity
					result="Failed"
					duration="14.19s"
					durationms="14189"
					type="test case iteration"
					rid="316907048d5d2030"
					totalerrorcount="1"
					totalwarningcount="0"
					totalsuccesscount="0"
					totalfailedcount="0"
					totalblockedcount="0"
					testcasename="TestCase"
					iteration="1">
					<datarow>
						<field
							name="DatabasePassword">
							notnow2
						</field>
						<field
							name="NewGroup">
							Backbase
						</field>
						<field
							name="NewEntryName">
							User
						</field>
						<field
							name="EnrtyUserName">
							aaron
						</field>
						<field
							name="EntryURL">
							https://my.backbase.com/homhttps://my.backbase.com/home#login
						</field>
						<field
							name="EntryPassword">
							supersecretpassword
						</field>
						<field
							name="EntryComment">
							Useful comment
						</field>
					</datarow>
					<detail>
					</detail>
					<activity
						result="Failed"
						duration="14.17s"
						durationms="14173"
						type="test module"
						rid="e23fd227f50c000"
						totalerrorcount="1"
						totalwarningcount="0"
						totalsuccesscount="0"
						totalfailedcount="0"
						totalblockedcount="0"
						modulename="LaunchApp"
						moduleid="aff991db-9da8-44e2-9e23-fcf364fffa5d"
						moduletype="Recording">
						<detail>
						</detail>
						<varbindings>
							<varbinding
								name="DatabasePassword"
								value="notnow2"/>
							<varbinding
								name="GroupName"
								value="Backbase"/>
							<varbinding
								name="NewEntryTitle"
								value="User"/>
							<varbinding
								name="NewEntryUserName"
								value="aaron"/>
							<varbinding
								name="NewEntryURL"
								value="https://my.backbase.com/homhttps://my.backbase.com/home#login"/>
							<varbinding
								name="NewEntryPassword"
								value="supersecretpassword"/>
							<varbinding
								name="NewEntryComment"
								value="Useful comment"/>
						</varbindings>
						<item
							timeRelativeToTestSuiteStartTime="00:00.390"
							timeRelativeToTestModuleStartTime="00:00.015"
							timeWallClock="09:47:35"
							time="00:00.390"
							level="Info"
							category="Data">
							<message>
								Current variable values:<br/>$DatabasePassword = 'notnow2', $GroupName = 'Backbase', $NewEntryTitle = 'User', $NewEntryUserName = 'aaron', $NewEntryURL = 'https://my.backbase.com/homhttps://my.backbase.com/home#login', $NewEntryPassword = 'supersecretpassword', $NewEntryComment = 'Useful comment'
							</message>
							<metainfo
								loglvl="Info"/>
						</item>
						<item
							timeRelativeToTestSuiteStartTime="00:00.500"
							timeRelativeToTestModuleStartTime="00:00.124"
							timeWallClock="09:47:35"
							time="00:00.500"
							level="Info"
							category="Touch">
							<message>
								Touch item 'ComAndroidKeepass.Content1.AddGroup' at Center
							</message>
							<metainfo
								type="repoitem"
								path="/mobileapp[@title='com.android.keepass']/form[@title='GroupActivityV3']/container[@rid='content']//button[@resourceid='R.string.add_group']"
								fullname="BackBaseMobileRepository.ComAndroidKeepass.Content1.AddGroup"
								id="2bec971af87f4fd3a555a5ca01a09014"
								timeout="90000"
								codefile="c:\Users\CTELaptop1064\Documents\Ranorex\RanorexStudio Projects\BackBaseMobile\BackBaseMobile\Recordings\LaunchApp.cs"
								codeline="169"
								itemindex="0"
								loglvl="Info"/>
						</item>
						<item
							timeRelativeToTestSuiteStartTime="00:14.548"
							timeRelativeToTestModuleStartTime="00:14.173"
							timeWallClock="09:47:49"
							time="00:14.548"
							level="Error"
							category="Module">
							<message>
								The test run has been aborted by the user.
							</message>
							<metainfo
								loglvl="Error"/>
						</item>
					</activity>
				</activity>
			</activity>
		</activity>
	</activity>
</report>
