﻿<?xml version="1.0" encoding="utf-8"?>
<report>
	<activity
		result="Failed"
		duration="55.17s"
		durationms="55169"
		type="root"
		rid="372e0c80515121b"
		totalerrorcount="1"
		totalwarningcount="0"
		totalsuccesscount="0"
		totalfailedcount="1"
		totalblockedcount="0"
		user="CTELaptop1064"
		host="CTELAPTOP-1064"
		rxversion="6.0.2.0"
		osversion="Windows 8.1 64bit"
		runtimeversion="4.0.30319.42000"
		procarch="32bit"
		language="en-US"
		screenresolution="1920x1080"
		timestamp="9/27/2016 9:50:12 AM"
		timestampiso="2016-09-27T13:50:12"
		timeoutfactor="1">
		<detail>
			Ranorex Testscript
		</detail>
		<activity
			result="Failed"
			duration="54.81s"
			durationms="54813"
			type="test suite"
			rid="15974de3aaffc9d4"
			totalerrorcount="1"
			totalwarningcount="0"
			totalsuccesscount="0"
			totalfailedcount="1"
			totalblockedcount="0"
			testsuitename="BackBaseMobile"
			runconfigname="TestRun"
			runlabel=""
			maxchildren="1">
			<params/>
			<detail>
			</detail>
			<activity
				result="Failed"
				duration="54.8s"
				durationms="54796"
				type="test case"
				rid="778ba5fb7757d7"
				totalerrorcount="1"
				totalwarningcount="0"
				totalsuccesscount="0"
				totalfailedcount="1"
				totalblockedcount="0"
				testcasename="TestCase"
				testcaseid="31ab1c4b-0888-442e-8967-ca0f247bd1f6"
				datasource="NewConnector"
				iterationcount="1"
				maxchildren="0">
				<params/>
				<detail>
				</detail>
				<activity
					result="Failed"
					duration="54.8s"
					durationms="54796"
					type="test case iteration"
					rid="27fe3cb786ba697a"
					totalerrorcount="1"
					totalwarningcount="0"
					totalsuccesscount="0"
					totalfailedcount="0"
					totalblockedcount="0"
					testcasename="TestCase"
					iteration="1">
					<datarow>
						<field
							name="DatabasePassword">
							notnow2
						</field>
						<field
							name="NewGroup">
							Backbase
						</field>
						<field
							name="NewEntryName">
							User
						</field>
						<field
							name="EnrtyUserName">
							aaron
						</field>
						<field
							name="EntryURL">
							https://my.backbase.com/homhttps://my.backbase.com/home#login
						</field>
						<field
							name="EntryPassword">
							supersecretpassword
						</field>
						<field
							name="EntryComment">
							Useful comment
						</field>
					</datarow>
					<detail>
					</detail>
					<activity
						result="Failed"
						duration="54.78s"
						durationms="54780"
						type="test module"
						rid="90cdd641e0b1de8"
						totalerrorcount="1"
						totalwarningcount="0"
						totalsuccesscount="0"
						totalfailedcount="0"
						totalblockedcount="0"
						modulename="LaunchApp"
						moduleid="aff991db-9da8-44e2-9e23-fcf364fffa5d"
						moduletype="Recording">
						<detail>
						</detail>
						<varbindings>
							<varbinding
								name="DatabasePassword"
								value="notnow2"/>
							<varbinding
								name="GroupName"
								value="Backbase"/>
							<varbinding
								name="NewEntryTitle"
								value="User"/>
							<varbinding
								name="NewEntryUserName"
								value="aaron"/>
							<varbinding
								name="NewEntryURL"
								value="https://my.backbase.com/homhttps://my.backbase.com/home#login"/>
							<varbinding
								name="NewEntryPassword"
								value="supersecretpassword"/>
							<varbinding
								name="NewEntryComment"
								value="Useful comment"/>
						</varbindings>
						<item
							timeRelativeToTestSuiteStartTime="00:00.404"
							timeRelativeToTestModuleStartTime="00:00.015"
							timeWallClock="09:50:13"
							time="00:00.404"
							level="Info"
							category="Data">
							<message>
								Current variable values:<br/>$DatabasePassword = 'notnow2', $GroupName = 'Backbase', $NewEntryTitle = 'User', $NewEntryUserName = 'aaron', $NewEntryURL = 'https://my.backbase.com/homhttps://my.backbase.com/home#login', $NewEntryPassword = 'supersecretpassword', $NewEntryComment = 'Useful comment'
							</message>
							<metainfo
								loglvl="Info"/>
						</item>
						<item
							timeRelativeToTestSuiteStartTime="00:00.497"
							timeRelativeToTestModuleStartTime="00:00.109"
							timeWallClock="09:50:13"
							time="00:00.497"
							level="Info"
							category="Application">
							<message>
								Run mobile app 'com.android.keepass' on device 'USB-092f084d'.
							</message>
							<metainfo
								itemindex="0"
								codefile="c:\Users\CTELaptop1064\Documents\Ranorex\RanorexStudio Projects\BackBaseMobile\BackBaseMobile\Recordings\LaunchApp.cs"
								codeline="169"
								loglvl="Info"/>
						</item>
						<item
							timeRelativeToTestSuiteStartTime="00:06.356"
							timeRelativeToTestModuleStartTime="00:05.968"
							timeWallClock="09:50:19"
							time="00:06.356"
							level="Info"
							category="Touch">
							<message>
								Touch item 'ComAndroidKeepass.Open' at Center
							</message>
							<metainfo
								type="repoitem"
								path="/mobileapp[@title='com.android.keepass']/form[@title='FileSelectActivity']/container[@rid='content']//button[@resourceid='R.string.menu_open']"
								fullname="BackBaseMobileRepository.ComAndroidKeepass.Open"
								id="88ed32c73ec148e3bce322e25b917772"
								timeout="60000"
								codefile="c:\Users\CTELaptop1064\Documents\Ranorex\RanorexStudio Projects\BackBaseMobile\BackBaseMobile\Recordings\LaunchApp.cs"
								codeline="173"
								itemindex="1"
								loglvl="Info"/>
						</item>
						<item
							timeRelativeToTestSuiteStartTime="00:08.631"
							timeRelativeToTestModuleStartTime="00:08.242"
							timeWallClock="09:50:21"
							time="00:08.631"
							level="Info"
							category="Set Value">
							<message>
								Setting attribute Text to '$DatabasePassword' on item 'ComAndroidKeepass.Password'.
							</message>
							<metainfo
								type="repoitem"
								path="/mobileapp[@title='com.android.keepass']/form[@title='PasswordActivity']//text[@rid='password']"
								fullname="BackBaseMobileRepository.ComAndroidKeepass.Password"
								id="99184fc214f34059907045a2410737a9"
								timeout="60000"
								codefile="c:\Users\CTELaptop1064\Documents\Ranorex\RanorexStudio Projects\BackBaseMobile\BackBaseMobile\Recordings\LaunchApp.cs"
								codeline="177"
								itemindex="2"
								loglvl="Info"/>
						</item>
						<item
							timeRelativeToTestSuiteStartTime="00:10.039"
							timeRelativeToTestModuleStartTime="00:09.651"
							timeWallClock="09:50:22"
							time="00:10.039"
							level="Info"
							category="Touch">
							<message>
								Touch item 'ComAndroidKeepass.OK' at Center
							</message>
							<metainfo
								type="repoitem"
								path="/mobileapp[@title='com.android.keepass']/form[@title='PasswordActivity']//button[@text='OK']"
								fullname="BackBaseMobileRepository.ComAndroidKeepass.OK"
								id="0ef678080baa4abbbf51e3a5dd30623a"
								timeout="60000"
								codefile="c:\Users\CTELaptop1064\Documents\Ranorex\RanorexStudio Projects\BackBaseMobile\BackBaseMobile\Recordings\LaunchApp.cs"
								codeline="181"
								itemindex="3"
								loglvl="Info"/>
						</item>
						<item
							timeRelativeToTestSuiteStartTime="00:11.845"
							timeRelativeToTestModuleStartTime="00:11.457"
							timeWallClock="09:50:24"
							time="00:11.845"
							level="Info"
							category="Touch">
							<message>
								Touch item 'ComAndroidKeepass.Content1.AddGroup' at Center
							</message>
							<metainfo
								type="repoitem"
								path="/mobileapp[@title='com.android.keepass']/form[@title='GroupActivityV3']/container[@rid='content']//button[@resourceid='R.string.add_group']"
								fullname="BackBaseMobileRepository.ComAndroidKeepass.Content1.AddGroup"
								id="2bec971af87f4fd3a555a5ca01a09014"
								timeout="90000"
								codefile="c:\Users\CTELaptop1064\Documents\Ranorex\RanorexStudio Projects\BackBaseMobile\BackBaseMobile\Recordings\LaunchApp.cs"
								codeline="185"
								itemindex="4"
								loglvl="Info"/>
						</item>
						<item
							timeRelativeToTestSuiteStartTime="00:14.617"
							timeRelativeToTestModuleStartTime="00:14.229"
							timeWallClock="09:50:27"
							time="00:14.617"
							level="Info"
							category="Set Value">
							<message>
								Setting attribute Text to '$GroupName' on item 'ComAndroidKeepass.GroupName'.
							</message>
							<metainfo
								type="repoitem"
								path="/mobileapp[@title='com.android.keepass']/form[2]//text[@rid='group_name']"
								fullname="BackBaseMobileRepository.ComAndroidKeepass.GroupName"
								id="0f2bd05c25e44320bd6db59ed0353062"
								timeout="60000"
								codefile="c:\Users\CTELaptop1064\Documents\Ranorex\RanorexStudio Projects\BackBaseMobile\BackBaseMobile\Recordings\LaunchApp.cs"
								codeline="189"
								itemindex="5"
								loglvl="Info"/>
						</item>
						<item
							timeRelativeToTestSuiteStartTime="00:15.963"
							timeRelativeToTestModuleStartTime="00:15.574"
							timeWallClock="09:50:28"
							time="00:15.963"
							level="Info"
							category="Touch">
							<message>
								Touch item 'ComAndroidKeepass.ButtonOk' at Center
							</message>
							<metainfo
								type="repoitem"
								path="/mobileapp[@title='com.android.keepass']/form[2]//button[@resourceid='R.string.yes']"
								fullname="BackBaseMobileRepository.ComAndroidKeepass.ButtonOk"
								id="61d95e73152d4775b4aa719f5875b11b"
								timeout="60000"
								codefile="c:\Users\CTELaptop1064\Documents\Ranorex\RanorexStudio Projects\BackBaseMobile\BackBaseMobile\Recordings\LaunchApp.cs"
								codeline="193"
								itemindex="6"
								loglvl="Info"/>
						</item>
						<item
							timeRelativeToTestSuiteStartTime="00:17.655"
							timeRelativeToTestModuleStartTime="00:17.266"
							timeWallClock="09:50:30"
							time="00:17.655"
							level="Info"
							category="Touch">
							<message>
								Touch item 'ComAndroidKeepass.Content1.Private' at Center
							</message>
							<metainfo
								type="repoitem"
								path="/mobileapp[@title='com.android.keepass']/form[@title='GroupActivityV3']/container[@rid='content']//list[@rid='list']/androidelement[3]/table/?/?/text[@caption='Backbase']"
								fullname="BackBaseMobileRepository.ComAndroidKeepass.Content1.Private"
								id="529a3bfdfbed471fbc8ac6f210c4e668"
								timeout="90000"
								codefile="c:\Users\CTELaptop1064\Documents\Ranorex\RanorexStudio Projects\BackBaseMobile\BackBaseMobile\Recordings\LaunchApp.cs"
								codeline="197"
								itemindex="7"
								loglvl="Info"/>
						</item>
						<item
							timeRelativeToTestSuiteStartTime="00:55.169"
							timeRelativeToTestModuleStartTime="00:54.780"
							timeWallClock="09:51:08"
							time="00:55.169"
							level="Error"
							category="Module">
							<message>
								The test run has been aborted by the user.
							</message>
							<metainfo
								loglvl="Error"/>
						</item>
					</activity>
				</activity>
			</activity>
		</activity>
	</activity>
</report>
