﻿<?xml version="1.0" encoding="utf-8"?>
<report>
	<activity
		result="Failed"
		duration="35.68s"
		durationms="35679"
		type="root"
		rid="e035afaae13f0"
		totalerrorcount="1"
		totalwarningcount="0"
		totalsuccesscount="0"
		totalfailedcount="1"
		totalblockedcount="0"
		user="CTELaptop1064"
		host="CTELAPTOP-1064"
		rxversion="6.0.2.0"
		osversion="Windows 8.1 64bit"
		runtimeversion="4.0.30319.42000"
		procarch="32bit"
		language="en-US"
		screenresolution="1920x1080"
		timestamp="9/27/2016 9:36:29 AM"
		timestampiso="2016-09-27T13:36:29"
		timeoutfactor="1">
		<detail>
			Ranorex Testscript
		</detail>
		<activity
			result="Failed"
			duration="35.35s"
			durationms="35350"
			type="test suite"
			rid="a7ae7751e43f9a0"
			totalerrorcount="1"
			totalwarningcount="0"
			totalsuccesscount="0"
			totalfailedcount="1"
			totalblockedcount="0"
			testsuitename="BackBaseMobile"
			runconfigname="TestRun"
			runlabel=""
			maxchildren="1">
			<params/>
			<detail>
			</detail>
			<activity
				result="Failed"
				duration="35.34s"
				durationms="35335"
				type="test case"
				rid="69129a5d91a8a20"
				totalerrorcount="1"
				totalwarningcount="0"
				totalsuccesscount="0"
				totalfailedcount="1"
				totalblockedcount="0"
				testcasename="TestCase"
				testcaseid="31ab1c4b-0888-442e-8967-ca0f247bd1f6"
				datasource="NewConnector"
				iterationcount="1"
				maxchildren="0">
				<params/>
				<detail>
				</detail>
				<activity
					result="Failed"
					duration="35.32s"
					durationms="35319"
					type="test case iteration"
					rid="17f8808d0dec1578"
					totalerrorcount="1"
					totalwarningcount="0"
					totalsuccesscount="0"
					totalfailedcount="0"
					totalblockedcount="0"
					testcasename="TestCase"
					iteration="1">
					<datarow>
						<field
							name="DatabasePassword">
							notnow2
						</field>
						<field
							name="NewGroup">
							Backbase
						</field>
						<field
							name="NewEntryName">
							User
						</field>
						<field
							name="EnrtyUserName">
							aaron
						</field>
						<field
							name="EntryURL">
							https://my.backbase.com/homhttps://my.backbase.com/home#login
						</field>
						<field
							name="EntryPassword">
							supersecretpassword
						</field>
						<field
							name="EntryComment">
							Useful comment
						</field>
					</datarow>
					<detail>
					</detail>
					<activity
						result="Failed"
						duration="35.3s"
						durationms="35304"
						type="test module"
						rid="c2daf428a8a7dea"
						totalerrorcount="1"
						totalwarningcount="0"
						totalsuccesscount="0"
						totalfailedcount="0"
						totalblockedcount="0"
						modulename="LaunchApp"
						moduleid="aff991db-9da8-44e2-9e23-fcf364fffa5d"
						moduletype="Recording">
						<detail>
						</detail>
						<varbindings>
							<varbinding
								name="DatabasePassword"
								value="notnow2"/>
							<varbinding
								name="GroupName"
								value="Backbase"/>
							<varbinding
								name="NewEntryTitle"
								value="User"/>
							<varbinding
								name="NewEntryUserName"
								value="aaron"/>
							<varbinding
								name="NewEntryURL"
								value="https://my.backbase.com/homhttps://my.backbase.com/home#login"/>
							<varbinding
								name="NewEntryPassword"
								value="supersecretpassword"/>
							<varbinding
								name="NewEntryComment"
								value="Useful comment"/>
						</varbindings>
						<item
							timeRelativeToTestSuiteStartTime="00:00.390"
							timeRelativeToTestModuleStartTime="00:00.015"
							timeWallClock="09:36:29"
							time="00:00.390"
							level="Info"
							category="Data">
							<message>
								Current variable values:<br/>$DatabasePassword = 'notnow2', $GroupName = 'Backbase', $NewEntryTitle = 'User', $NewEntryUserName = 'aaron', $NewEntryURL = 'https://my.backbase.com/homhttps://my.backbase.com/home#login', $NewEntryPassword = 'supersecretpassword', $NewEntryComment = 'Useful comment'
							</message>
							<metainfo
								loglvl="Info"/>
						</item>
						<item
							timeRelativeToTestSuiteStartTime="00:00.508"
							timeRelativeToTestModuleStartTime="00:00.133"
							timeWallClock="09:36:29"
							time="00:00.508"
							level="Info"
							category="Application">
							<message>
								Run mobile app 'com.android.keepass' on device 'USB-092f084d'.
							</message>
							<metainfo
								itemindex="0"
								codefile="c:\Users\CTELaptop1064\Documents\Ranorex\RanorexStudio Projects\BackBaseMobile\BackBaseMobile\Recordings\LaunchApp.cs"
								codeline="173"
								loglvl="Info"/>
						</item>
						<item
							timeRelativeToTestSuiteStartTime="00:06.336"
							timeRelativeToTestModuleStartTime="00:05.961"
							timeWallClock="09:36:35"
							time="00:06.336"
							level="Info"
							category="Touch">
							<message>
								Touch item 'ComAndroidKeepass.Open' at Center
							</message>
							<metainfo
								type="repoitem"
								path="/mobileapp[@title='com.android.keepass']/form[@title='FileSelectActivity']/container[@rid='content']//button[@resourceid='R.string.menu_open']"
								fullname="BackBaseMobileRepository.ComAndroidKeepass.Open"
								id="88ed32c73ec148e3bce322e25b917772"
								timeout="60000"
								codefile="c:\Users\CTELaptop1064\Documents\Ranorex\RanorexStudio Projects\BackBaseMobile\BackBaseMobile\Recordings\LaunchApp.cs"
								codeline="177"
								itemindex="1"
								loglvl="Info"/>
						</item>
						<item
							timeRelativeToTestSuiteStartTime="00:08.726"
							timeRelativeToTestModuleStartTime="00:08.351"
							timeWallClock="09:36:38"
							time="00:08.726"
							level="Info"
							category="Set Value">
							<message>
								Setting attribute Text to '$DatabasePassword' on item 'ComAndroidKeepass.Password'.
							</message>
							<metainfo
								type="repoitem"
								path="/mobileapp[@title='com.android.keepass']/form[@title='PasswordActivity']//text[@rid='password']"
								fullname="BackBaseMobileRepository.ComAndroidKeepass.Password"
								id="99184fc214f34059907045a2410737a9"
								timeout="60000"
								codefile="c:\Users\CTELaptop1064\Documents\Ranorex\RanorexStudio Projects\BackBaseMobile\BackBaseMobile\Recordings\LaunchApp.cs"
								codeline="181"
								itemindex="2"
								loglvl="Info"/>
						</item>
						<item
							timeRelativeToTestSuiteStartTime="00:10.133"
							timeRelativeToTestModuleStartTime="00:09.758"
							timeWallClock="09:36:39"
							time="00:10.133"
							level="Info"
							category="Touch">
							<message>
								Touch item 'ComAndroidKeepass.OK' at Center
							</message>
							<metainfo
								type="repoitem"
								path="/mobileapp[@title='com.android.keepass']/form[@title='PasswordActivity']//button[@text='OK']"
								fullname="BackBaseMobileRepository.ComAndroidKeepass.OK"
								id="0ef678080baa4abbbf51e3a5dd30623a"
								timeout="60000"
								codefile="c:\Users\CTELaptop1064\Documents\Ranorex\RanorexStudio Projects\BackBaseMobile\BackBaseMobile\Recordings\LaunchApp.cs"
								codeline="185"
								itemindex="3"
								loglvl="Info"/>
						</item>
						<item
							timeRelativeToTestSuiteStartTime="00:11.852"
							timeRelativeToTestModuleStartTime="00:11.477"
							timeWallClock="09:36:41"
							time="00:11.852"
							level="Info"
							category="Touch">
							<message>
								Touch item 'ComAndroidKeepass.Content1.AddGroup' at Center
							</message>
							<metainfo
								type="repoitem"
								path="/mobileapp[@title='com.android.keepass']/form[@title='GroupActivityV3']/container[@rid='content']//button[@resourceid='R.string.add_group']"
								fullname="BackBaseMobileRepository.ComAndroidKeepass.Content1.AddGroup"
								id="2bec971af87f4fd3a555a5ca01a09014"
								timeout="90000"
								codefile="c:\Users\CTELaptop1064\Documents\Ranorex\RanorexStudio Projects\BackBaseMobile\BackBaseMobile\Recordings\LaunchApp.cs"
								codeline="189"
								itemindex="4"
								loglvl="Info"/>
						</item>
						<item
							timeRelativeToTestSuiteStartTime="00:14.865"
							timeRelativeToTestModuleStartTime="00:14.490"
							timeWallClock="09:36:44"
							time="00:14.865"
							level="Info"
							category="Set Value">
							<message>
								Setting attribute Text to '$GroupName' on item 'ComAndroidKeepass.GroupName'.
							</message>
							<metainfo
								type="repoitem"
								path="/mobileapp[@title='com.android.keepass']/form[2]//text[@rid='group_name']"
								fullname="BackBaseMobileRepository.ComAndroidKeepass.GroupName"
								id="0f2bd05c25e44320bd6db59ed0353062"
								timeout="60000"
								codefile="c:\Users\CTELaptop1064\Documents\Ranorex\RanorexStudio Projects\BackBaseMobile\BackBaseMobile\Recordings\LaunchApp.cs"
								codeline="193"
								itemindex="5"
								loglvl="Info"/>
						</item>
						<item
							timeRelativeToTestSuiteStartTime="00:16.085"
							timeRelativeToTestModuleStartTime="00:15.710"
							timeWallClock="09:36:45"
							time="00:16.085"
							level="Info"
							category="Touch">
							<message>
								Touch item 'ComAndroidKeepass.ButtonOk' at Center
							</message>
							<metainfo
								type="repoitem"
								path="/mobileapp[@title='com.android.keepass']/form[2]//button[@resourceid='R.string.yes']"
								fullname="BackBaseMobileRepository.ComAndroidKeepass.ButtonOk"
								id="61d95e73152d4775b4aa719f5875b11b"
								timeout="60000"
								codefile="c:\Users\CTELaptop1064\Documents\Ranorex\RanorexStudio Projects\BackBaseMobile\BackBaseMobile\Recordings\LaunchApp.cs"
								codeline="197"
								itemindex="6"
								loglvl="Info"/>
						</item>
						<item
							timeRelativeToTestSuiteStartTime="00:17.756"
							timeRelativeToTestModuleStartTime="00:17.380"
							timeWallClock="09:36:47"
							time="00:17.756"
							level="Info"
							category="Touch">
							<message>
								Touch item 'ComAndroidKeepass.Content1.Private' at Center
							</message>
							<metainfo
								type="repoitem"
								path="/mobileapp[@title='com.android.keepass']/form[@title='GroupActivityV3']/container[@rid='content']//list[@rid='list']/androidelement[3]/table/?/?/text[@caption='private']"
								fullname="BackBaseMobileRepository.ComAndroidKeepass.Content1.Private"
								id="529a3bfdfbed471fbc8ac6f210c4e668"
								timeout="90000"
								codefile="c:\Users\CTELaptop1064\Documents\Ranorex\RanorexStudio Projects\BackBaseMobile\BackBaseMobile\Recordings\LaunchApp.cs"
								codeline="201"
								itemindex="7"
								loglvl="Info"/>
						</item>
						<item
							timeRelativeToTestSuiteStartTime="00:35.679"
							timeRelativeToTestModuleStartTime="00:35.304"
							timeWallClock="09:37:05"
							time="00:35.679"
							level="Error"
							category="Module">
							<message>
								The test run has been aborted by the user.
							</message>
							<metainfo
								loglvl="Error"/>
						</item>
					</activity>
				</activity>
			</activity>
		</activity>
	</activity>
</report>
