﻿<?xml version="1.0" encoding="utf-8"?>
<report>
	<activity
		result="Success"
		duration="0ms"
		durationms="0"
		type="root"
		rid="100fc8334eeb604"
		totalerrorcount="0"
		totalwarningcount="0"
		totalsuccesscount="1"
		totalfailedcount="0"
		totalblockedcount="0"
		user="CTELaptop1064"
		host="CTELAPTOP-1064"
		rxversion="6.0.2.0"
		osversion="Windows 8.1 64bit"
		runtimeversion="4.0.30319.42000"
		procarch="32bit"
		language="en-US"
		screenresolution="1920x1080"
		timestamp="9/27/2016 12:29:55 PM"
		timestampiso="2016-09-27T16:29:55"
		timeoutfactor="1">
		<detail>
			Ranorex Testscript
		</detail>
		<activity
			result="Success"
			duration="1.8m"
			durationms="107324"
			type="test suite"
			rid="606a0fffdd0cf54"
			totalerrorcount="0"
			totalwarningcount="0"
			totalsuccesscount="1"
			totalfailedcount="0"
			totalblockedcount="0"
			testsuitename="BackBaseMobile"
			runconfigname="TestRun"
			runlabel=""
			maxchildren="1">
			<params/>
			<detail>
			</detail>
			<activity
				result="Success"
				duration="1.8m"
				durationms="107307"
				type="test case"
				rid="1ca5b60cb8cc6692"
				totalerrorcount="0"
				totalwarningcount="0"
				totalsuccesscount="1"
				totalfailedcount="0"
				totalblockedcount="0"
				testcasename="TestCase"
				testcaseid="31ab1c4b-0888-442e-8967-ca0f247bd1f6"
				datasource="NewConnector"
				iterationcount="1"
				maxchildren="0">
				<params/>
				<detail>
				</detail>
				<activity
					result="Success"
					duration="1.8m"
					durationms="107303"
					type="test case iteration"
					rid="7971253f9f92a14"
					totalerrorcount="0"
					totalwarningcount="0"
					totalsuccesscount="0"
					totalfailedcount="0"
					totalblockedcount="0"
					testcasename="TestCase"
					iteration="1">
					<datarow>
						<field
							name="DatabasePassword">
							notnow2
						</field>
						<field
							name="NewGroup">
							Backbase
						</field>
						<field
							name="NewEntryName">
							User
						</field>
						<field
							name="EnrtyUserName">
							aaron
						</field>
						<field
							name="EntryURL">
							https://my.backbase.com/home#login
						</field>
						<field
							name="EntryPassword">
							supersecretpassword
						</field>
						<field
							name="EntryComment">
							Useful comment
						</field>
					</datarow>
					<detail>
					</detail>
					<activity
						result="Success"
						duration="1.8m"
						durationms="107273"
						type="test module"
						rid="d9bf65ba0a852eb"
						totalerrorcount="0"
						totalwarningcount="0"
						totalsuccesscount="0"
						totalfailedcount="0"
						totalblockedcount="0"
						modulename="LaunchApp"
						moduleid="aff991db-9da8-44e2-9e23-fcf364fffa5d"
						moduletype="Recording">
						<detail>
						</detail>
						<varbindings>
							<varbinding
								name="DatabasePassword"
								value="notnow2"/>
							<varbinding
								name="GroupName"
								value="Backbase"/>
							<varbinding
								name="NewEntryTitle"
								value="User"/>
							<varbinding
								name="NewEntryUserName"
								value="aaron"/>
							<varbinding
								name="NewEntryURL"
								value="https://my.backbase.com/home#login"/>
							<varbinding
								name="NewEntryPassword"
								value="supersecretpassword"/>
							<varbinding
								name="NewEntryComment"
								value="Useful comment"/>
						</varbindings>
						<item
							timeRelativeToTestSuiteStartTime="00:00.469"
							timeRelativeToTestModuleStartTime="00:00.007"
							timeWallClock="12:29:55"
							time="00:00.469"
							level="Info"
							category="Data">
							<message>
								Current variable values:<br/>$DatabasePassword = 'notnow2', $GroupName = 'Backbase', $NewEntryTitle = 'User', $NewEntryUserName = 'aaron', $NewEntryURL = 'https://my.backbase.com/home#login', $NewEntryPassword = 'supersecretpassword', $NewEntryComment = 'Useful comment'
							</message>
							<metainfo
								loglvl="Info"/>
						</item>
						<item
							timeRelativeToTestSuiteStartTime="00:00.575"
							timeRelativeToTestModuleStartTime="00:00.112"
							timeWallClock="12:29:55"
							time="00:00.575"
							level="Info"
							category="Application">
							<message>
								Run mobile app 'com.android.keepass' on device 'USB-092f084d'.
							</message>
							<metainfo
								itemindex="0"
								codefile="c:\Users\CTELaptop1064\Documents\Ranorex\RanorexStudio Projects\BackBaseMobile\BackBaseMobile\Recordings\LaunchApp.cs"
								codeline="169"
								loglvl="Info"/>
						</item>
						<item
							timeRelativeToTestSuiteStartTime="00:07.979"
							timeRelativeToTestModuleStartTime="00:07.516"
							timeWallClock="12:30:03"
							time="00:07.979"
							level="Info"
							category="Touch">
							<message>
								Touch item 'ComAndroidKeepass.Open' at Center
							</message>
							<metainfo
								type="repoitem"
								path="/mobileapp[@title='com.android.keepass']/form[@title='FileSelectActivity']/container[@rid='content']//button[@resourceid='R.string.menu_open']"
								fullname="BackBaseMobileRepository.ComAndroidKeepass.Open"
								id="88ed32c73ec148e3bce322e25b917772"
								timeout="34000"
								codefile="c:\Users\CTELaptop1064\Documents\Ranorex\RanorexStudio Projects\BackBaseMobile\BackBaseMobile\Recordings\LaunchApp.cs"
								codeline="173"
								itemindex="1"
								loglvl="Info"/>
						</item>
						<item
							timeRelativeToTestSuiteStartTime="00:11.513"
							timeRelativeToTestModuleStartTime="00:11.050"
							timeWallClock="12:30:06"
							time="00:11.513"
							level="Info"
							category="Set Value">
							<message>
								Setting attribute Text to '$DatabasePassword' on item 'ComAndroidKeepass.Password'.
							</message>
							<metainfo
								type="repoitem"
								path="/mobileapp[@title='com.android.keepass']/form[@title='PasswordActivity']//text[@rid='password']"
								fullname="BackBaseMobileRepository.ComAndroidKeepass.Password"
								id="99184fc214f34059907045a2410737a9"
								timeout="34000"
								codefile="c:\Users\CTELaptop1064\Documents\Ranorex\RanorexStudio Projects\BackBaseMobile\BackBaseMobile\Recordings\LaunchApp.cs"
								codeline="177"
								itemindex="2"
								loglvl="Info"/>
						</item>
						<item
							timeRelativeToTestSuiteStartTime="00:13.610"
							timeRelativeToTestModuleStartTime="00:13.148"
							timeWallClock="12:30:08"
							time="00:13.610"
							level="Info"
							category="Touch">
							<message>
								Touch item 'ComAndroidKeepass.OK' at Center
							</message>
							<metainfo
								type="repoitem"
								path="/mobileapp[@title='com.android.keepass']/form[@title='PasswordActivity']//button[@text='OK']"
								fullname="BackBaseMobileRepository.ComAndroidKeepass.OK"
								id="0ef678080baa4abbbf51e3a5dd30623a"
								timeout="34000"
								codefile="c:\Users\CTELaptop1064\Documents\Ranorex\RanorexStudio Projects\BackBaseMobile\BackBaseMobile\Recordings\LaunchApp.cs"
								codeline="181"
								itemindex="3"
								loglvl="Info"/>
						</item>
						<item
							timeRelativeToTestSuiteStartTime="00:16.355"
							timeRelativeToTestModuleStartTime="00:15.892"
							timeWallClock="12:30:11"
							time="00:16.355"
							level="Info"
							category="Touch">
							<message>
								Touch item 'ComAndroidKeepass.Content1.AddGroup' at Center
							</message>
							<metainfo
								type="repoitem"
								path="/mobileapp[@title='com.android.keepass']/form[@title='GroupActivityV3']/container[@rid='content']//button[@resourceid='R.string.add_group']"
								fullname="BackBaseMobileRepository.ComAndroidKeepass.Content1.AddGroup"
								id="2bec971af87f4fd3a555a5ca01a09014"
								timeout="38000"
								codefile="c:\Users\CTELaptop1064\Documents\Ranorex\RanorexStudio Projects\BackBaseMobile\BackBaseMobile\Recordings\LaunchApp.cs"
								codeline="185"
								itemindex="4"
								loglvl="Info"/>
						</item>
						<item
							timeRelativeToTestSuiteStartTime="00:20.156"
							timeRelativeToTestModuleStartTime="00:19.694"
							timeWallClock="12:30:15"
							time="00:20.156"
							level="Info"
							category="Set Value">
							<message>
								Setting attribute Text to '$GroupName' on item 'ComAndroidKeepass.GroupName'.
							</message>
							<metainfo
								type="repoitem"
								path="/mobileapp[@title='com.android.keepass']/form[2]//text[@rid='group_name']"
								fullname="BackBaseMobileRepository.ComAndroidKeepass.GroupName"
								id="0f2bd05c25e44320bd6db59ed0353062"
								timeout="34000"
								codefile="c:\Users\CTELaptop1064\Documents\Ranorex\RanorexStudio Projects\BackBaseMobile\BackBaseMobile\Recordings\LaunchApp.cs"
								codeline="189"
								itemindex="5"
								loglvl="Info"/>
						</item>
						<item
							timeRelativeToTestSuiteStartTime="00:22.188"
							timeRelativeToTestModuleStartTime="00:21.725"
							timeWallClock="12:30:17"
							time="00:22.188"
							level="Info"
							category="Touch">
							<message>
								Touch item 'ComAndroidKeepass.ButtonOk' at Center
							</message>
							<metainfo
								type="repoitem"
								path="/mobileapp[@title='com.android.keepass']/form[2]//button[@resourceid='R.string.yes']"
								fullname="BackBaseMobileRepository.ComAndroidKeepass.ButtonOk"
								id="61d95e73152d4775b4aa719f5875b11b"
								timeout="34000"
								codefile="c:\Users\CTELaptop1064\Documents\Ranorex\RanorexStudio Projects\BackBaseMobile\BackBaseMobile\Recordings\LaunchApp.cs"
								codeline="193"
								itemindex="6"
								loglvl="Info"/>
						</item>
						<item
							timeRelativeToTestSuiteStartTime="00:24.746"
							timeRelativeToTestModuleStartTime="00:24.284"
							timeWallClock="12:30:19"
							time="00:24.746"
							level="Info"
							category="Validation">
							<message>
								Validating AttributeEqual (Text=$GroupName) on item 'ComAndroidKeepass.Content1.Private'.
							</message>
							<metainfo
								type="repoitem"
								path="/mobileapp[@title='com.android.keepass']/form[@title='GroupActivityV3']/container[@rid='content']//list[@rid='list']/androidelement[1]/table/?/?/text[@caption='Backbase']"
								fullname="BackBaseMobileRepository.ComAndroidKeepass.Content1.Private"
								id="529a3bfdfbed471fbc8ac6f210c4e668"
								timeout="10000"
								codefile="c:\Users\CTELaptop1064\Documents\Ranorex\RanorexStudio Projects\BackBaseMobile\BackBaseMobile\Recordings\LaunchApp.cs"
								codeline="197"
								itemindex="7"
								loglvl="Info"/>
						</item>
						<item
							timeRelativeToTestSuiteStartTime="00:26.445"
							timeRelativeToTestModuleStartTime="00:25.982"
							timeWallClock="12:30:21"
							time="00:26.445"
							level="Success"
							category="Validation">
							<message>
								Attribute 'Text' of element for item 'BackBaseMobileRepository.ComAndroidKeepass.Content1.Private' does match the specified value.
							</message>
							<metainfo
								type="repoitem"
								path="/mobileapp[@title='com.android.keepass']/form[@title='GroupActivityV3']/container[@rid='content']//list[@rid='list']/androidelement[1]/table/?/?/text[@caption='Backbase']"
								fullname="BackBaseMobileRepository.ComAndroidKeepass.Content1.Private"
								id="529a3bfdfbed471fbc8ac6f210c4e668"
								timeout="10000"
								codefile="c:\Users\CTELaptop1064\Documents\Ranorex\RanorexStudio Projects\BackBaseMobile\BackBaseMobile\Recordings\LaunchApp.cs"
								codeline="198"
								loglvl="Success"
								itemindex="7"/>
						</item>
						<item
							timeRelativeToTestSuiteStartTime="00:27.678"
							timeRelativeToTestModuleStartTime="00:27.215"
							timeWallClock="12:30:22"
							time="00:27.678"
							level="Info"
							category="Touch">
							<message>
								Touch item 'ComAndroidKeepass.Content1.Private' at Center
							</message>
							<metainfo
								type="repoitem"
								path="/mobileapp[@title='com.android.keepass']/form[@title='GroupActivityV3']/container[@rid='content']//list[@rid='list']/androidelement[1]/table/?/?/text[@caption='Backbase']"
								fullname="BackBaseMobileRepository.ComAndroidKeepass.Content1.Private"
								id="529a3bfdfbed471fbc8ac6f210c4e668"
								timeout="10000"
								codefile="c:\Users\CTELaptop1064\Documents\Ranorex\RanorexStudio Projects\BackBaseMobile\BackBaseMobile\Recordings\LaunchApp.cs"
								codeline="201"
								itemindex="8"
								loglvl="Info"/>
						</item>
						<item
							timeRelativeToTestSuiteStartTime="00:31.189"
							timeRelativeToTestModuleStartTime="00:30.727"
							timeWallClock="12:30:26"
							time="00:31.189"
							level="Info"
							category="Touch">
							<message>
								Touch item 'ComAndroidKeepass.Content1.AddEntry' at Center
							</message>
							<metainfo
								type="repoitem"
								path="/mobileapp[@title='com.android.keepass']/form[@title='GroupActivityV3']/container[@rid='content']//button[@resourceid='R.string.add_entry']"
								fullname="BackBaseMobileRepository.ComAndroidKeepass.Content1.AddEntry"
								id="0889777caebc41c5b7d7202199688b59"
								timeout="38000"
								codefile="c:\Users\CTELaptop1064\Documents\Ranorex\RanorexStudio Projects\BackBaseMobile\BackBaseMobile\Recordings\LaunchApp.cs"
								codeline="205"
								itemindex="9"
								loglvl="Info"/>
						</item>
						<item
							timeRelativeToTestSuiteStartTime="00:34.486"
							timeRelativeToTestModuleStartTime="00:34.024"
							timeWallClock="12:30:29"
							time="00:34.486"
							level="Info"
							category="Set Value">
							<message>
								Setting attribute Text to '$NewEntryTitle' on item 'ComAndroidKeepass.Content.EntryTitle'.
							</message>
							<metainfo
								type="repoitem"
								path="/mobileapp[@title='com.android.keepass']/form[@title='EntryEditActivityV3']/container[@rid='content']//text[@rid='entry_title']"
								fullname="BackBaseMobileRepository.ComAndroidKeepass.Content.EntryTitle"
								id="6a7881250cd34660ab2cf8bfd54d7b25"
								timeout="64000"
								codefile="c:\Users\CTELaptop1064\Documents\Ranorex\RanorexStudio Projects\BackBaseMobile\BackBaseMobile\Recordings\LaunchApp.cs"
								codeline="209"
								itemindex="10"
								loglvl="Info"/>
						</item>
						<item
							timeRelativeToTestSuiteStartTime="00:37.038"
							timeRelativeToTestModuleStartTime="00:36.576"
							timeWallClock="12:30:32"
							time="00:37.038"
							level="Info"
							category="Set Value">
							<message>
								Setting attribute Text to '$NewEntryUserName' on item 'ComAndroidKeepass.Content.EntryUserName'.
							</message>
							<metainfo
								type="repoitem"
								path="/mobileapp[@title='com.android.keepass']/form[@title='EntryEditActivityV3']/container[@rid='content']//text[@rid='entry_user_name']"
								fullname="BackBaseMobileRepository.ComAndroidKeepass.Content.EntryUserName"
								id="991ba5a313bc40aab3cb7401f99d1b9c"
								timeout="64000"
								codefile="c:\Users\CTELaptop1064\Documents\Ranorex\RanorexStudio Projects\BackBaseMobile\BackBaseMobile\Recordings\LaunchApp.cs"
								codeline="213"
								itemindex="11"
								loglvl="Info"/>
						</item>
						<item
							timeRelativeToTestSuiteStartTime="00:38.888"
							timeRelativeToTestModuleStartTime="00:38.425"
							timeWallClock="12:30:33"
							time="00:38.888"
							level="Info"
							category="Set Value">
							<message>
								Setting attribute Text to '$NewEntryURL' on item 'ComAndroidKeepass.Content.EntryUrl'.
							</message>
							<metainfo
								type="repoitem"
								path="/mobileapp[@title='com.android.keepass']/form[@title='EntryEditActivityV3']/container[@rid='content']//text[@rid='entry_url']"
								fullname="BackBaseMobileRepository.ComAndroidKeepass.Content.EntryUrl"
								id="aed065d2cf6540ac8befcb788b6af9e0"
								timeout="64000"
								codefile="c:\Users\CTELaptop1064\Documents\Ranorex\RanorexStudio Projects\BackBaseMobile\BackBaseMobile\Recordings\LaunchApp.cs"
								codeline="217"
								itemindex="12"
								loglvl="Info"/>
						</item>
						<item
							timeRelativeToTestSuiteStartTime="00:40.775"
							timeRelativeToTestModuleStartTime="00:40.312"
							timeWallClock="12:30:35"
							time="00:40.775"
							level="Info"
							category="Set Value">
							<message>
								Setting attribute Text to '$NewEntryPassword' on item 'ComAndroidKeepass.Content.EntryPassword'.
							</message>
							<metainfo
								type="repoitem"
								path="/mobileapp[@title='com.android.keepass']/form[@title='EntryEditActivityV3']/container[@rid='content']//text[@rid='entry_password']"
								fullname="BackBaseMobileRepository.ComAndroidKeepass.Content.EntryPassword"
								id="da9e12ccd7104c5aa6863f6f3a9db227"
								timeout="64000"
								codefile="c:\Users\CTELaptop1064\Documents\Ranorex\RanorexStudio Projects\BackBaseMobile\BackBaseMobile\Recordings\LaunchApp.cs"
								codeline="221"
								itemindex="13"
								loglvl="Info"/>
						</item>
						<item
							timeRelativeToTestSuiteStartTime="00:42.734"
							timeRelativeToTestModuleStartTime="00:42.271"
							timeWallClock="12:30:37"
							time="00:42.734"
							level="Info"
							category="Set Value">
							<message>
								Setting attribute Text to '$NewEntryPassword' on item 'ComAndroidKeepass.Content.EntryConfpassword'.
							</message>
							<metainfo
								type="repoitem"
								path="/mobileapp[@title='com.android.keepass']/form[@title='EntryEditActivityV3']/container[@rid='content']//text[@rid='entry_confpassword']"
								fullname="BackBaseMobileRepository.ComAndroidKeepass.Content.EntryConfpassword"
								id="d5d94f1f6e6c42d8b3788235a5475924"
								timeout="64000"
								codefile="c:\Users\CTELaptop1064\Documents\Ranorex\RanorexStudio Projects\BackBaseMobile\BackBaseMobile\Recordings\LaunchApp.cs"
								codeline="225"
								itemindex="14"
								loglvl="Info"/>
						</item>
						<item
							timeRelativeToTestSuiteStartTime="00:44.571"
							timeRelativeToTestModuleStartTime="00:44.109"
							timeWallClock="12:30:39"
							time="00:44.571"
							level="Info"
							category="Set Value">
							<message>
								Setting attribute Text to '$NewEntryComment' on item 'ComAndroidKeepass.Content.EntryComment'.
							</message>
							<metainfo
								type="repoitem"
								path="/mobileapp[@title='com.android.keepass']/form[@title='EntryEditActivityV3']/container[@rid='content']//text[@rid='entry_comment']"
								fullname="BackBaseMobileRepository.ComAndroidKeepass.Content.EntryComment"
								id="3aad6d36eb504df5ad925d68a7cfe843"
								timeout="64000"
								codefile="c:\Users\CTELaptop1064\Documents\Ranorex\RanorexStudio Projects\BackBaseMobile\BackBaseMobile\Recordings\LaunchApp.cs"
								codeline="229"
								itemindex="15"
								loglvl="Info"/>
						</item>
						<item
							timeRelativeToTestSuiteStartTime="00:46.417"
							timeRelativeToTestModuleStartTime="00:45.955"
							timeWallClock="12:30:41"
							time="00:46.417"
							level="Info"
							category="Touch">
							<message>
								Touch item 'ComAndroidKeepass.EntrySave' at Center
							</message>
							<metainfo
								type="repoitem"
								path="/mobileapp[@title='com.android.keepass']/form[@title='EntryEditActivityV3']//button[@resourceid='R.string.entry_save']"
								fullname="BackBaseMobileRepository.ComAndroidKeepass.EntrySave"
								id="10def57da17949f685c36c5899593586"
								timeout="34000"
								codefile="c:\Users\CTELaptop1064\Documents\Ranorex\RanorexStudio Projects\BackBaseMobile\BackBaseMobile\Recordings\LaunchApp.cs"
								codeline="233"
								itemindex="16"
								loglvl="Info"/>
						</item>
						<item
							timeRelativeToTestSuiteStartTime="00:49.328"
							timeRelativeToTestModuleStartTime="00:48.865"
							timeWallClock="12:30:44"
							time="00:49.328"
							level="Info"
							category="Validation">
							<message>
								Validating AttributeEqual (Text=$NewEntryTitle) on item 'ComAndroidKeepass.Content1.New1'.
							</message>
							<metainfo
								type="repoitem"
								path="/mobileapp[@title='com.android.keepass']/form[@title='GroupActivityV3']/container[@rid='content']//list[@rid='list']/?/?/table/?/?/text[@caption='User']"
								fullname="BackBaseMobileRepository.ComAndroidKeepass.Content1.New1"
								id="daba7a1fd48b4f56ac4d3a6cc6ac9607"
								timeout="38000"
								codefile="c:\Users\CTELaptop1064\Documents\Ranorex\RanorexStudio Projects\BackBaseMobile\BackBaseMobile\Recordings\LaunchApp.cs"
								codeline="237"
								itemindex="17"
								loglvl="Info"/>
						</item>
						<item
							timeRelativeToTestSuiteStartTime="00:51.393"
							timeRelativeToTestModuleStartTime="00:50.931"
							timeWallClock="12:30:46"
							time="00:51.393"
							level="Success"
							category="Validation">
							<message>
								Attribute 'Text' of element for item 'BackBaseMobileRepository.ComAndroidKeepass.Content1.New1' does match the specified value.
							</message>
							<metainfo
								type="repoitem"
								path="/mobileapp[@title='com.android.keepass']/form[@title='GroupActivityV3']/container[@rid='content']//list[@rid='list']/?/?/table/?/?/text[@caption='User']"
								fullname="BackBaseMobileRepository.ComAndroidKeepass.Content1.New1"
								id="daba7a1fd48b4f56ac4d3a6cc6ac9607"
								timeout="38000"
								codefile="c:\Users\CTELaptop1064\Documents\Ranorex\RanorexStudio Projects\BackBaseMobile\BackBaseMobile\Recordings\LaunchApp.cs"
								codeline="238"
								loglvl="Success"
								itemindex="17"/>
						</item>
						<item
							timeRelativeToTestSuiteStartTime="00:52.699"
							timeRelativeToTestModuleStartTime="00:52.237"
							timeWallClock="12:30:47"
							time="00:52.699"
							level="Info"
							category="Touch">
							<message>
								Touch item 'ComAndroidKeepass.MoreOptions' at Center
							</message>
							<metainfo
								type="repoitem"
								path="/mobileapp[@title='com.android.keepass']/form[@title='GroupActivityV3']/toolbar//androidelement[@contentdescription='More options']"
								fullname="BackBaseMobileRepository.ComAndroidKeepass.MoreOptions"
								id="940e25e091844c18b36d8a5feb812b1f"
								timeout="34000"
								codefile="c:\Users\CTELaptop1064\Documents\Ranorex\RanorexStudio Projects\BackBaseMobile\BackBaseMobile\Recordings\LaunchApp.cs"
								codeline="241"
								itemindex="18"
								loglvl="Info"/>
						</item>
						<item
							timeRelativeToTestSuiteStartTime="00:55.647"
							timeRelativeToTestModuleStartTime="00:55.184"
							timeWallClock="12:30:50"
							time="00:55.647"
							level="Info"
							category="Touch">
							<message>
								Touch item 'ComAndroidKeepass.FormNone.Settings' at Center
							</message>
							<metainfo
								type="repoitem"
								path="/mobileapp[@title='com.android.keepass']/form[@title='(none)']/androidelement/androidelement/androidelement[2]/container[@containertype='Relative']/text[@resourceid='R.string.menu_app_settings']"
								fullname="BackBaseMobileRepository.ComAndroidKeepass.FormNone.Settings"
								id="731b0a897cd8495daaa068406631a04b"
								timeout="64000"
								codefile="c:\Users\CTELaptop1064\Documents\Ranorex\RanorexStudio Projects\BackBaseMobile\BackBaseMobile\Recordings\LaunchApp.cs"
								codeline="245"
								itemindex="19"
								loglvl="Info"/>
						</item>
						<item
							timeRelativeToTestSuiteStartTime="00:58.831"
							timeRelativeToTestModuleStartTime="00:58.368"
							timeWallClock="12:30:53"
							time="00:58.831"
							level="Info"
							category="Touch">
							<message>
								Touch item 'ComAndroidKeepass.Relative1' at Center
							</message>
							<metainfo
								type="repoitem"
								path="/mobileapp[@title='com.android.keepass']/form[@title='AppSettingsActivity']/container[@rid='content']//list[@rid='list']/container[2]/container[@containertype='Relative']"
								fullname="BackBaseMobileRepository.ComAndroidKeepass.Relative1"
								id="0e533184ebeb4e4fb97e406cf05f73dc"
								timeout="34000"
								codefile="c:\Users\CTELaptop1064\Documents\Ranorex\RanorexStudio Projects\BackBaseMobile\BackBaseMobile\Recordings\LaunchApp.cs"
								codeline="249"
								itemindex="20"
								loglvl="Info"/>
						</item>
						<item
							timeRelativeToTestSuiteStartTime="01:02.797"
							timeRelativeToTestModuleStartTime="01:02.335"
							timeWallClock="12:30:57"
							time="01:02.797"
							level="Info"
							category="Touch">
							<message>
								Touch item 'ComAndroidKeepass.FormNone.Checkbox' at Center
							</message>
							<metainfo
								type="repoitem"
								path="/mobileapp[@title='com.android.keepass']/form[@title='(none)']//list[@rid='list']/?/?/container[@rid='widget_frame']/checkbox[@rid='checkbox']"
								fullname="BackBaseMobileRepository.ComAndroidKeepass.FormNone.Checkbox"
								id="05ebb818d0ee4d72960e9359c0905f31"
								timeout="64000"
								codefile="c:\Users\CTELaptop1064\Documents\Ranorex\RanorexStudio Projects\BackBaseMobile\BackBaseMobile\Recordings\LaunchApp.cs"
								codeline="253"
								itemindex="21"
								loglvl="Info"/>
						</item>
						<item
							timeRelativeToTestSuiteStartTime="01:06.327"
							timeRelativeToTestModuleStartTime="01:05.864"
							timeWallClock="12:31:01"
							time="01:06.327"
							level="Info"
							category="Keyboard">
							<message>
								Key '{BACK}' press on 'ComAndroidKeepass.AppSettingsActivity'.
							</message>
							<metainfo
								type="repoitem"
								path="/mobileapp[@title='com.android.keepass']/form[@title='AppSettingsActivity']"
								fullname="BackBaseMobileRepository.ComAndroidKeepass.AppSettingsActivity"
								id="9b820377108d4a6498b4831680383838"
								timeout="34000"
								codefile="c:\Users\CTELaptop1064\Documents\Ranorex\RanorexStudio Projects\BackBaseMobile\BackBaseMobile\Recordings\LaunchApp.cs"
								codeline="257"
								itemindex="22"
								loglvl="Info"/>
						</item>
						<item
							timeRelativeToTestSuiteStartTime="01:08.319"
							timeRelativeToTestModuleStartTime="01:07.856"
							timeWallClock="12:31:03"
							time="01:08.319"
							level="Info"
							category="Touch">
							<message>
								Touch item 'ComAndroidKeepass.Relative1' at Center
							</message>
							<metainfo
								type="repoitem"
								path="/mobileapp[@title='com.android.keepass']/form[@title='AppSettingsActivity']/container[@rid='content']//list[@rid='list']/container[2]/container[@containertype='Relative']"
								fullname="BackBaseMobileRepository.ComAndroidKeepass.Relative1"
								id="0e533184ebeb4e4fb97e406cf05f73dc"
								timeout="34000"
								codefile="c:\Users\CTELaptop1064\Documents\Ranorex\RanorexStudio Projects\BackBaseMobile\BackBaseMobile\Recordings\LaunchApp.cs"
								codeline="261"
								itemindex="23"
								loglvl="Info"/>
						</item>
						<item
							timeRelativeToTestSuiteStartTime="01:11.292"
							timeRelativeToTestModuleStartTime="01:10.830"
							timeWallClock="12:31:06"
							time="01:11.292"
							level="Info"
							category="Validation">
							<message>
								Validating AttributeEqual (Checked='False') on item 'ComAndroidKeepass.FormNone.Checkbox'.
							</message>
							<metainfo
								type="repoitem"
								path="/mobileapp[@title='com.android.keepass']/form[@title='(none)']//list[@rid='list']/?/?/container[@rid='widget_frame']/checkbox[@rid='checkbox']"
								fullname="BackBaseMobileRepository.ComAndroidKeepass.FormNone.Checkbox"
								id="05ebb818d0ee4d72960e9359c0905f31"
								timeout="64000"
								codefile="c:\Users\CTELaptop1064\Documents\Ranorex\RanorexStudio Projects\BackBaseMobile\BackBaseMobile\Recordings\LaunchApp.cs"
								codeline="265"
								itemindex="24"
								loglvl="Info"/>
						</item>
						<item
							timeRelativeToTestSuiteStartTime="01:12.868"
							timeRelativeToTestModuleStartTime="01:12.405"
							timeWallClock="12:31:07"
							time="01:12.868"
							level="Success"
							category="Validation">
							<message>
								Attribute 'Checked' of element for item 'BackBaseMobileRepository.ComAndroidKeepass.FormNone.Checkbox' does match the specified value.
							</message>
							<metainfo
								type="repoitem"
								path="/mobileapp[@title='com.android.keepass']/form[@title='(none)']//list[@rid='list']/?/?/container[@rid='widget_frame']/checkbox[@rid='checkbox']"
								fullname="BackBaseMobileRepository.ComAndroidKeepass.FormNone.Checkbox"
								id="05ebb818d0ee4d72960e9359c0905f31"
								timeout="64000"
								codefile="c:\Users\CTELaptop1064\Documents\Ranorex\RanorexStudio Projects\BackBaseMobile\BackBaseMobile\Recordings\LaunchApp.cs"
								codeline="266"
								loglvl="Success"
								itemindex="24"/>
						</item>
						<item
							timeRelativeToTestSuiteStartTime="01:14.448"
							timeRelativeToTestModuleStartTime="01:13.986"
							timeWallClock="12:31:09"
							time="01:14.448"
							level="Info"
							category="Touch">
							<message>
								Touch item 'ComAndroidKeepass.FormNone.Checkbox' at Center
							</message>
							<metainfo
								type="repoitem"
								path="/mobileapp[@title='com.android.keepass']/form[@title='(none)']//list[@rid='list']/?/?/container[@rid='widget_frame']/checkbox[@rid='checkbox']"
								fullname="BackBaseMobileRepository.ComAndroidKeepass.FormNone.Checkbox"
								id="05ebb818d0ee4d72960e9359c0905f31"
								timeout="64000"
								codefile="c:\Users\CTELaptop1064\Documents\Ranorex\RanorexStudio Projects\BackBaseMobile\BackBaseMobile\Recordings\LaunchApp.cs"
								codeline="269"
								itemindex="25"
								loglvl="Info"/>
						</item>
						<item
							timeRelativeToTestSuiteStartTime="01:17.807"
							timeRelativeToTestModuleStartTime="01:17.345"
							timeWallClock="12:31:12"
							time="01:17.807"
							level="Info"
							category="Keyboard">
							<message>
								Key '{BACK}' press on 'ComAndroidKeepass.AppSettingsActivity'.
							</message>
							<metainfo
								type="repoitem"
								path="/mobileapp[@title='com.android.keepass']/form[@title='AppSettingsActivity']"
								fullname="BackBaseMobileRepository.ComAndroidKeepass.AppSettingsActivity"
								id="9b820377108d4a6498b4831680383838"
								timeout="34000"
								codefile="c:\Users\CTELaptop1064\Documents\Ranorex\RanorexStudio Projects\BackBaseMobile\BackBaseMobile\Recordings\LaunchApp.cs"
								codeline="273"
								itemindex="26"
								loglvl="Info"/>
						</item>
						<item
							timeRelativeToTestSuiteStartTime="01:20.491"
							timeRelativeToTestModuleStartTime="01:20.029"
							timeWallClock="12:31:15"
							time="01:20.491"
							level="Info"
							category="Keyboard">
							<message>
								Key '{BACK}' press on 'ComAndroidKeepass.AppSettingsActivity'.
							</message>
							<metainfo
								type="repoitem"
								path="/mobileapp[@title='com.android.keepass']/form[@title='AppSettingsActivity']"
								fullname="BackBaseMobileRepository.ComAndroidKeepass.AppSettingsActivity"
								id="9b820377108d4a6498b4831680383838"
								timeout="34000"
								codefile="c:\Users\CTELaptop1064\Documents\Ranorex\RanorexStudio Projects\BackBaseMobile\BackBaseMobile\Recordings\LaunchApp.cs"
								codeline="277"
								itemindex="27"
								loglvl="Info"/>
						</item>
						<item
							timeRelativeToTestSuiteStartTime="01:23.352"
							timeRelativeToTestModuleStartTime="01:22.889"
							timeWallClock="12:31:18"
							time="01:23.352"
							level="Info"
							category="Keyboard">
							<message>
								Key '{BACK}' press on 'ComAndroidKeepass'.
							</message>
							<metainfo
								type="repoitem"
								path="/mobileapp[@title='com.android.keepass']"
								fullname="BackBaseMobileRepository.ComAndroidKeepass.Self"
								id="ff95e21f643842f58a7e53e2fa695a19"
								timeout="4000"
								codefile="c:\Users\CTELaptop1064\Documents\Ranorex\RanorexStudio Projects\BackBaseMobile\BackBaseMobile\Recordings\LaunchApp.cs"
								codeline="281"
								itemindex="28"
								loglvl="Info"/>
						</item>
						<item
							timeRelativeToTestSuiteStartTime="01:26.283"
							timeRelativeToTestModuleStartTime="01:25.821"
							timeWallClock="12:31:21"
							time="01:26.283"
							level="Info"
							category="Touch">
							<message>
								LongTouch item 'ComAndroidKeepass.Content1.Backbase' at Center
							</message>
							<metainfo
								type="repoitem"
								path="/mobileapp[@title='com.android.keepass']/form[@title='GroupActivityV3']/container[@rid='content']//list[@rid='list']/?/?/table/?/?/text[@caption='Backbase']"
								fullname="BackBaseMobileRepository.ComAndroidKeepass.Content1.Backbase"
								id="40454fef58834e669506f295936e2a1e"
								timeout="38000"
								codefile="c:\Users\CTELaptop1064\Documents\Ranorex\RanorexStudio Projects\BackBaseMobile\BackBaseMobile\Recordings\LaunchApp.cs"
								codeline="285"
								itemindex="29"
								loglvl="Info"/>
						</item>
						<item
							timeRelativeToTestSuiteStartTime="01:31.008"
							timeRelativeToTestModuleStartTime="01:30.545"
							timeWallClock="12:31:26"
							time="01:31.008"
							level="Info"
							category="Touch">
							<message>
								Touch item 'ComAndroidKeepass.Delete' at Center
							</message>
							<metainfo
								type="repoitem"
								path="/mobileapp[@title='com.android.keepass']/form[@title='']/container[@rid='content']/container/container[2]//text[@resourceid='R.string.menu_delete']"
								fullname="BackBaseMobileRepository.ComAndroidKeepass.Delete"
								id="fe1d2a1560d84898a27fa5b6fea6d929"
								timeout="34000"
								codefile="c:\Users\CTELaptop1064\Documents\Ranorex\RanorexStudio Projects\BackBaseMobile\BackBaseMobile\Recordings\LaunchApp.cs"
								codeline="289"
								itemindex="30"
								loglvl="Info"/>
						</item>
						<item
							timeRelativeToTestSuiteStartTime="01:34.883"
							timeRelativeToTestModuleStartTime="01:34.421"
							timeWallClock="12:31:29"
							time="01:34.883"
							level="Info"
							category="Validation">
							<message>
								Validating NotExists on item 'ComAndroidKeepass.Content1.Private'.
							</message>
							<metainfo
								type="repoitem"
								path="/mobileapp[@title='com.android.keepass']/form[@title='GroupActivityV3']/container[@rid='content']//list[@rid='list']/androidelement[1]/table/?/?/text[@caption='Backbase']"
								fullname="BackBaseMobileRepository.ComAndroidKeepass.Content1.Private"
								id="529a3bfdfbed471fbc8ac6f210c4e668"
								timeout="10000"
								codefile="c:\Users\CTELaptop1064\Documents\Ranorex\RanorexStudio Projects\BackBaseMobile\BackBaseMobile\Recordings\LaunchApp.cs"
								codeline="293"
								itemindex="31"
								loglvl="Info"/>
						</item>
						<item
							timeRelativeToTestSuiteStartTime="01:46.122"
							timeRelativeToTestModuleStartTime="01:45.659"
							timeWallClock="12:31:41"
							time="01:46.122"
							level="Success"
							category="Validation">
							<message>
								Element for item 'BackBaseMobileRepository.ComAndroidKeepass.Content1.Private' does not exist (Failed to find item 'BackBaseMobileRepository.ComAndroidKeepass.Content1.Private'. No element found for path '/mobileapp[@title='com.android.keepass']/form[@title='GroupActivityV3']/container[@rid='content']//list[@rid='list']/androidelement[1]/table/?/?/text[@caption='Backbase']' within 10s.).
							</message>
							<metainfo
								type="repoitem"
								path="/mobileapp[@title='com.android.keepass']/form[@title='GroupActivityV3']/container[@rid='content']//list[@rid='list']/androidelement[1]/table/?/?/text[@caption='Backbase']"
								fullname="BackBaseMobileRepository.ComAndroidKeepass.Content1.Private"
								id="529a3bfdfbed471fbc8ac6f210c4e668"
								timeout="10000"
								codefile="c:\Users\CTELaptop1064\Documents\Ranorex\RanorexStudio Projects\BackBaseMobile\BackBaseMobile\Recordings\LaunchApp.cs"
								codeline="294"
								loglvl="Success"
								itemindex="31"/>
						</item>
					</activity>
				</activity>
			</activity>
		</activity>
	</activity>
</report>
