﻿<?xml version="1.0" encoding="utf-8"?>
<report>
	<activity
		result="Failed"
		duration="30.73s"
		durationms="30727"
		type="root"
		rid="2d5afa16dbbb80af"
		totalerrorcount="1"
		totalwarningcount="2"
		totalsuccesscount="0"
		totalfailedcount="0"
		totalblockedcount="0"
		user="CTELaptop1064"
		host="CTELAPTOP-1064"
		rxversion="6.0.2.0"
		osversion="Windows 8.1 64bit"
		runtimeversion="4.0.30319.42000"
		procarch="32bit"
		language="en-US"
		screenresolution="3600x1080"
		timestamp="10/4/2016 1:34:44 PM"
		timestampiso="2016-10-04T17:34:44"
		timeoutfactor="1"
		module="KeePass">
		<detail>
			KeePass
		</detail>
		<varbindings/>
		<item
			timeRelativeToTestSuiteStartTime="00:00.584"
			timeRelativeToTestModuleStartTime="00:00.584"
			timeWallClock="13:34:44"
			time="00:00.584"
			level="Warn"
			category="Data">
			<message>
				The following module variables are not bound to a data column:<br/>NewEntryUserName, NewEntryURL, NewEntryPassword, NewEntryComment, DatabasePassword, GroupName, NewEntryTitle
			</message>
			<metainfo
				loglvl="Warn"/>
		</item>
		<item
			timeRelativeToTestSuiteStartTime="00:00.615"
			timeRelativeToTestModuleStartTime="00:00.615"
			timeWallClock="13:34:44"
			time="00:00.615"
			level="Info"
			category="Application">
			<message>
				Run mobile app 'com.android.keepass' on device 'USB-TA0050ALD9'.
			</message>
			<metainfo
				itemindex="0"
				codefile="c:\Users\CTELaptop1064\Documents\Ranorex\RanorexStudio Projects\BackBaseMobile\BackBaseMobile\Recordings\KeePass.cs"
				codeline="169"
				loglvl="Info"/>
		</item>
		<item
			timeRelativeToTestSuiteStartTime="00:05.958"
			timeRelativeToTestModuleStartTime="00:05.958"
			timeWallClock="13:34:50"
			time="00:05.958"
			level="Info"
			category="Touch">
			<message>
				Touch item 'ComAndroidKeepass.Open' at Center
			</message>
			<metainfo
				type="repoitem"
				path="/mobileapp[@title='com.android.keepass']/form[@title='FileSelectActivity']/container[@rid='content']//button[@resourceid='R.string.menu_open']"
				fullname="BackBaseMobileRepository.ComAndroidKeepass.Open"
				id="88ed32c73ec148e3bce322e25b917772"
				timeout="34000"
				codefile="c:\Users\CTELaptop1064\Documents\Ranorex\RanorexStudio Projects\BackBaseMobile\BackBaseMobile\Recordings\KeePass.cs"
				codeline="173"
				itemindex="1"
				loglvl="Info"/>
		</item>
		<item
			timeRelativeToTestSuiteStartTime="00:06.099"
			timeRelativeToTestModuleStartTime="00:06.099"
			timeWallClock="13:34:50"
			time="00:06.099"
			level="Warn"
			category="Mobile">
			<message>
				The android app &#8216;KeePassDroid&#8217; on device &#8216;USB-TA0050ALD9&#8217; is instrumented with AutomationLib version &#8216;1.8.3&#8217;, which is not the latest supported version. It is recommended that you re-instrument your app.<br/>The following website provides more information on this technology limitation:<br/>http://www.ranorex.com/support/user-guide-20/mobile-testing.html#Versioning<br/>(This message is only shown once per report.)
			</message>
			<metainfo
				limitationName="RanorexDeviceVersionMismatchWarning"
				codefile="c:\Users\CTELaptop1064\Documents\Ranorex\RanorexStudio Projects\BackBaseMobile\BackBaseMobile\Recordings\KeePass.cs"
				codeline="174"
				loglvl="Warn"
				itemindex="1"/>
		</item>
		<item
			timeRelativeToTestSuiteStartTime="00:07.755"
			timeRelativeToTestModuleStartTime="00:07.755"
			timeWallClock="13:34:51"
			time="00:07.755"
			level="Info"
			category="Set Value">
			<message>
				Setting attribute Text to '$DatabasePassword' on item 'ComAndroidKeepass.Password'.
			</message>
			<metainfo
				type="repoitem"
				path="/mobileapp[@title='com.android.keepass']/form[@title='PasswordActivity']//text[@rid='password']"
				fullname="BackBaseMobileRepository.ComAndroidKeepass.Password"
				id="99184fc214f34059907045a2410737a9"
				timeout="34000"
				codefile="c:\Users\CTELaptop1064\Documents\Ranorex\RanorexStudio Projects\BackBaseMobile\BackBaseMobile\Recordings\KeePass.cs"
				codeline="177"
				itemindex="2"
				loglvl="Info"/>
		</item>
		<item
			timeRelativeToTestSuiteStartTime="00:08.719"
			timeRelativeToTestModuleStartTime="00:08.719"
			timeWallClock="13:34:52"
			time="00:08.719"
			level="Info"
			category="Touch">
			<message>
				Touch item 'ComAndroidKeepass.OK' at Center
			</message>
			<metainfo
				type="repoitem"
				path="/mobileapp[@title='com.android.keepass']/form[@title='PasswordActivity']//button[@text='OK']"
				fullname="BackBaseMobileRepository.ComAndroidKeepass.OK"
				id="0ef678080baa4abbbf51e3a5dd30623a"
				timeout="34000"
				codefile="c:\Users\CTELaptop1064\Documents\Ranorex\RanorexStudio Projects\BackBaseMobile\BackBaseMobile\Recordings\KeePass.cs"
				codeline="181"
				itemindex="3"
				loglvl="Info"/>
		</item>
		<item
			timeRelativeToTestSuiteStartTime="00:30.727"
			timeRelativeToTestModuleStartTime="00:30.727"
			timeWallClock="13:35:14"
			time="00:30.727"
			level="Error"
			category="Module">
			<message>
				The test run has been aborted by the user.
			</message>
			<metainfo
				loglvl="Error"/>
		</item>
	</activity>
</report>
